[
  {
    "date" : "February 1",
    "sent" : 25,
    "delivered" : 23,
    "open" : 7,
    "bounces" : 2,
    "compaints" : 0
  },
  {
    "date" : "February 2",
    "sent" : 33,
    "delivered" : 33,
    "open" : 15,
    "bounces" : 0,
    "compaints" : 1
  },
  {
    "date" : "February 3",
    "sent" : 38,
    "delivered" : 35,
    "open" : 22,
    "bounces" : 3,
    "compaints" : 0
  },
  {
    "date" : "February 4",
    "sent" : 44,
    "delivered" : 39,
    "open" : 25,
    "bounces" : 5,
    "compaints" : 0
  },
  {
    "date" : "February 5",
    "sent" : 50,
    "delivered" : 47,
    "open" : 32,
    "bounces" : 3,
    "compaints" : 1
  },
  {
    "date" : "February 6",
    "sent" : 55,
    "delivered" : 48,
    "open" : 41,
    "bounces" : 7,
    "compaints" : 0
  },
  {
    "date" : "February 7",
    "sent" : 60,
    "delivered" : 35,
    "open" : 32,
    "bounces" : 15,
    "compaints" : 0
  }
]